[
    {
        "width": 120,
        "height": 180
    },
    {
        "width": 160,
        "height": 240
    },
    {
        "width": 240,
        "height": 360
    },
    {
        "width": 320,
        "height": 480
    },
    {
        "width": 360,
        "height": 640
    },
    {
        "width": 375,
        "height": 667
    },
    {
        "width": 414,
        "height": 736
    },
    {
        "width": 360,
        "height": 740
    },
    {
        "width": 411,
        "height": 731
    },
    {
        "width": 320,
        "height": 568
    },
    {
        "width": 320,
        "height": 534
    },
    {
        "width": 360,
        "height": 720
    },
    {
        "width": 480,
        "height": 800
    },
    {
        "width": 480,
        "height": 854
    },
    {
        "width": 540,
        "height": 960
    },
    {
        "width": 600,
        "height": 1024
    },
    {
        "width": 601,
        "height": 962
    },
    {
        "width": 640,
        "height": 960
    },
    {
        "width": 768,
        "height": 1024
    },
    {
        "width": 320,
        "height": 320
    },
    {
        "width": 360,
        "height": 360
    },
    {
        "width": 390,
        "height": 390
    },
    {
        "width": 454,
        "height": 454
    },
    {
        "width": 1280,
        "height": 800
    },
    {
        "width": 1366,
        "height": 768
    },
    {
        "width": 1440,
        "height": 900
    },
    {
        "width": 1600,
        "height": 900
    },
    {
        "width": 1680,
        "height": 1050
    },
    {
        "width": 1920,
        "height": 1080
    }
]